+ MAYAVERSION:2015 assetManager any C:\gitLab\ssToolShelf\mayaEnvironment
scripts+:= scripts
+ MAYAVERSION:2016 assetManager any C:\gitLab\ssToolShelf\mayaEnvironment
scripts+:= scripts
+ MAYAVERSION:2017 assetManager any C:\gitLab\ssToolShelf\mayaEnvironment
scripts+:= scripts
+ MAYAVERSION:2018 assetManager any C:\gitLab\ssToolShelf\mayaEnvironment
scripts+:= scripts
