{
    "webAddress": "https://www.yuque.com/lindayuan-8o2th/sstoolshelf/gdvbfn", 
    "copyright": "Figo", 
    "iconName": ":/icon/py.png", 
    "filePath": "C:/gitLab/sstoolshelf/publish/FgToolshelf/depository/exeTool/drop200630175949.py", 
    "tag": "default", 
    "nowHelpData": "<!DOCTYPE HTML PUBLIC \"-//W3C//DTD HTML 4.0//EN\" \"http://www.w3.org/TR/REC-html40/strict.dtd\">\n<html><head><meta name=\"qrichtext\" content=\"1\" /><style type=\"text/css\">\np, li { white-space: pre-wrap; }\n</style></head><body style=\" font-family:'Microsoft YaHei'; font-size:13px; font-weight:400; font-style:normal;\">\n<p style=\" margin-top:0px; margin-bottom:0px; margin-left:0px; margin-right:0px; -qt-block-indent:0; text-indent:0px;\">\u6ca1\u4e8b\u70b9\u4e00\u4e0b\uff0c\u91cd\u540d\u7269\u4f53\u5168KO</p></body></html>", 
    "nickName": "\u81ea\u52a8KO\u91cd\u540d\u7269\u4f53"
}