{
    "webAddress": "http://rigtools.cn/33.html", 
    "tag": "default", 
    "iconName": ":/icon/py.png", 
    "copyright": "jonntd@gmail.com(\u72d7\u54e5)", 
    "filePath": "C:/gitLab/sstoolshelf/publish/FgToolshelf/depository/exeTool/drop200518165254.py", 
    "nowHelpData": "<!DOCTYPE HTML PUBLIC \"-//W3C//DTD HTML 4.0//EN\" \"http://www.w3.org/TR/REC-html40/strict.dtd\">\n<html><head><meta name=\"qrichtext\" content=\"1\" /><style type=\"text/css\">\np, li { white-space: pre-wrap; }\n</style></head><body style=\" font-family:'Verdana'; font-size:13px; font-weight:400; font-style:normal;\">\n<p style=\" margin-top:0px; margin-bottom:0px; margin-left:0px; margin-right:0px; -qt-block-indent:0; text-indent:0px;\">\u811a\u672c\u91cc\u8bbe\u7f6e\u5feb\u6377\u952e\uff0c\u9ed8\u8ba4\u662f\u952e\u76d8\u5de6\u4e0a\u89d2\u7684`\u952e\u3002\u6309\u5feb\u6377\u952e\u5c31\u4f1aprint\u7a97\u53e3\u540d,\u72d7\u54e5\u725b\u903c</p></body></html>", 
    "nickName": "\u7528\u5feb\u6377\u952e\u53d6\u9f20\u6807\u4f4d\u7f6e\u7a97\u53e3\u7684\u540d\u5b57"
}