{
    "webAddress": "https://www.yuque.com/lindayuan-8o2th/sstoolshelf/gdvbfn", 
    "copyright": "Figo", 
    "iconName": ":/icon/txt.png", 
    "filePath": "C:/gitLab/sstoolshelf/publish/FgToolshelf/depository/exeTool/drop200622070716.txt", 
    "tag": "default", 
    "nowHelpData": "<!DOCTYPE HTML PUBLIC \"-//W3C//DTD HTML 4.0//EN\" \"http://www.w3.org/TR/REC-html40/strict.dtd\">\n<html><head><meta name=\"qrichtext\" content=\"1\" /><style type=\"text/css\">\np, li { white-space: pre-wrap; }\n</style></head><body style=\" font-family:'Microsoft YaHei'; font-size:13px; font-weight:400; font-style:normal;\">\n<p style=\" margin-top:0px; margin-bottom:0px; margin-left:0px; margin-right:0px; -qt-block-indent:0; text-indent:0px;\">\u5728windows\u73af\u5883\u4e0b\u4f7f\u7528shell\u89e3\u51b3\u6587\u4ef6\u5360\u7528</p></body></html>", 
    "nickName": "\u89e3\u51b3\u6587\u4ef6\u5360\u7528"
}