{
    "webAddress": "https://www.yuque.com/lindayuan-8o2th/sstoolshelf/gdvbfn", 
    "copyright": "Figo", 
    "iconName": ":/icon/py.png", 
    "filePath": "C:/gitLab/sstoolshelf/publish/FgToolshelf/depository/exeTool/MengMengSuperAlert.py", 
    "tag": "default", 
    "nowHelpData": "<!DOCTYPE HTML PUBLIC \"-//W3C//DTD HTML 4.0//EN\" \"http://www.w3.org/TR/REC-html40/strict.dtd\">\n<html><head><meta name=\"qrichtext\" content=\"1\" /><style type=\"text/css\">\np, li { white-space: pre-wrap; }\n</style></head><body style=\" font-family:'Microsoft YaHei'; font-size:13px; font-weight:400; font-style:normal;\">\n<p style=\" margin-top:0px; margin-bottom:0px; margin-left:0px; margin-right:0px; -qt-block-indent:0; text-indent:0px;\">\u670d\u52a1\u5668\u6570\u636e\u548c\u672c\u5730\u6570\u636e\u540c\u6b65\u4e4b\u540e\uff0c\u53ef\u4ee5\u70b9\u4e00\u4e0b\u8fd9\u4e2a\u6309\u94ae\u544a\u8bc9\u5c0f\u4f19\u4f34\u4eec\u6211\u66f4\u65b0\u4e86\u3002\u987a\u4fbf\u53ef\u4ee5\u505a\u4e00\u4e2a\u65f6\u95f4\u8bb0\u5f55</p></body></html>", 
    "nickName": "\u9489\u9489\u540c\u6b65\u63d0\u9192\u5c0f\u52a9\u624b"
}