{
    "webAddress": "https://www.yuque.com/lindayuan-8o2th/sstoolshelf/gdvbfn", 
    "tag": "0_pipeline", 
    "iconName": ":/icon/py.png", 
    "copyright": "fei.wang", 
    "filePath": "C:/gitLab/sstoolshelf/debug/depository/Model/objectRestruct.py", 
    "nowHelpData": "<!DOCTYPE HTML PUBLIC \"-//W3C//DTD HTML 4.0//EN\" \"http://www.w3.org/TR/REC-html40/strict.dtd\">\n<html><head><meta name=\"qrichtext\" content=\"1\" /><style type=\"text/css\">\np, li { white-space: pre-wrap; }\n</style></head><body style=\" font-family:'Verdana'; font-size:13px; font-weight:400; font-style:normal;\">\n<p style=\" margin-top:0px; margin-bottom:0px; margin-left:0px; margin-right:0px; -qt-block-indent:0; text-indent:0px;\"><span style=\" font-family:'Microsoft YaHei'; font-size:13px; font-style:italic;\">\u5f00\u53d1\u4e2d...\u5df2\u7ecf\u53ef\u4ee5\u7528\u4e0a\u4e86</span></p>\n<p style=\" margin-top:0px; margin-bottom:0px; margin-left:0px; margin-right:0px; -qt-block-indent:0; text-indent:0px;\"><span style=\" font-family:'Microsoft YaHei'; font-size:13px; font-style:italic;\">\u901a\u8fc7\u62fe\u53d6\u548c\u586b\u5199\uff0c\u6574\u7406\u6a21\u578b\u5c42\u7ea7\u548c\u547d\u540d</span></p></body></html>", 
    "nickName": "tool - \u6a21\u578b\u6574\u7406\u5de5\u5177"
}