{
    "webAddress": "https://www.yuque.com/lindayuan-8o2th/sstoolshelf/gdvbfn", 
    "tag": "0_pipeline", 
    "iconName": ":/icon/py.png", 
    "copyright": "shiwenjuan", 
    "filePath": "S:/PipeProgram/figoPipe/toolShelf/FgToolshelf/depository/Model/openGetDialog_model.py", 
    "nowHelpData": "<!DOCTYPE HTML PUBLIC \"-//W3C//DTD HTML 4.0//EN\" \"http://www.w3.org/TR/REC-html40/strict.dtd\">\n<html><head><meta name=\"qrichtext\" content=\"1\" /><style type=\"text/css\">\np, li { white-space: pre-wrap; }\n</style></head><body style=\" font-family:'Verdana'; font-size:13px; font-weight:400; font-style:normal;\">\n<p style=\" margin-top:0px; margin-bottom:0px; margin-left:0px; margin-right:0px; -qt-block-indent:0; text-indent:0px;\">\u8fd9\u4e2a\u4eba\u5f88\u61d2\uff0c\u6ca1\u6709\u6dfb\u52a0\u6ce8\u91ca</p></body></html>", 
    "nickName": "brownser - \u6a21\u578b\u9886\u53d6\u5de5\u5177"
}