{
    "webAddress": "https://www.yuque.com/lindayuan-8o2th/sstoolshelf/gdvbfn", 
    "tag": "0_pipeline", 
    "iconName": ":/icon/py.png", 
    "copyright": "v.wangff", 
    "filePath": "C:/gitLab/sstoolshelf/publish/FgToolshelf/depository/Model/openPublishDialog_env.py", 
    "nowHelpData": "<!DOCTYPE HTML PUBLIC \"-//W3C//DTD HTML 4.0//EN\" \"http://www.w3.org/TR/REC-html40/strict.dtd\">\n<html><head><meta name=\"qrichtext\" content=\"1\" /><style type=\"text/css\">\np, li { white-space: pre-wrap; }\n</style></head><body style=\" font-family:'Verdana'; font-size:13px; font-weight:400; font-style:normal;\">\n<p style=\" margin-top:0px; margin-bottom:0px; margin-left:0px; margin-right:0px; -qt-block-indent:0; text-indent:0px;\"><span style=\" font-family:'Microsoft YaHei'; font-size:13px;\">\u53d1\u5e03\u573a\u666f\u6574\u5408\u7684\u5de5\u5177\uff0c\u9ed8\u8ba4\u5728\u53d1\u5e03\u7684\u540c\u65f6\uff0c\u51fa\u4e00\u4e2aabc\u6587\u4ef6\u7ed9\u52a8\u753b\u7684GPU\u7f13\u5b58\u4f7f\u7528</span></p></body></html>", 
    "nickName": "brownser - \u573a\u666f\u53d1\u5e03\u5de5\u5177"
}