{
    "webAddress": "https://www.yuque.com/lindayuan-8o2th/sstoolshelf/uoqds5", 
    "tag": "default", 
    "iconName": "biaoqingbao (10).png", 
    "copyright": "\u6797\u5927\u8fdc", 
    "nowHelpData": "<!DOCTYPE HTML PUBLIC \"-//W3C//DTD HTML 4.0//EN\" \"http://www.w3.org/TR/REC-html40/strict.dtd\">\n<html><head><meta name=\"qrichtext\" content=\"1\" /><style type=\"text/css\">\np, li { white-space: pre-wrap; }\n</style></head><body style=\" font-family:'Verdana'; font-size:13px; font-weight:400; font-style:normal;\">\n<p style=\" margin-top:0px; margin-bottom:0px; margin-left:0px; margin-right:0px; -qt-block-indent:0; text-indent:0px;\"><span style=\" font-size:13px;\">\u7ed1\u5b9a\u4f7f\u7528\u7684\u5c42\u7ea7\u7ed3\u6784</span></p>\n<p style=\" margin-top:0px; margin-bottom:0px; margin-left:0px; margin-right:0px; -qt-block-indent:0; text-indent:0px;\"><span style=\" font-size:13px;\">model_grp\u653e\u6a21\u578b</span></p>\n<p style=\" margin-top:0px; margin-bottom:0px; margin-left:0px; margin-right:0px; -qt-block-indent:0; text-indent:0px;\"><span style=\" font-size:13px;\">rig_grp\u653eadv\u7ed1\u5b9a\u7cfb\u7edf</span></p>\n<p style=\" margin-top:0px; margin-bottom:0px; margin-left:0px; margin-right:0px; -qt-block-indent:0; text-indent:0px;\"><span style=\" font-size:13px;\">doNotTouch_grp\u653e\u4e00\u4e9b\u4e0d\u60f3\u8ba9\u4eba\u78b0\u7684\u4e1c\u897f</span></p></body></html>", 
    "nickName": "\u521b\u5efa\u89d2\u8272\u7a7a\u7ec4"
}