{
    "webAddress": "https://www.yuque.com/lindayuan-8o2th/sstoolshelf/nxbssq", 
    "tag": "default", 
    "copyright": "\u6797\u5927\u8fdc", 
    "iconName": "CD.png", 
    "loadedHelpData": "", 
    "nowHelpData": "<!DOCTYPE HTML PUBLIC \"-//W3C//DTD HTML 4.0//EN\" \"http://www.w3.org/TR/REC-html40/strict.dtd\">\n<html><head><meta name=\"qrichtext\" content=\"1\" /><style type=\"text/css\">\np, li { white-space: pre-wrap; }\n</style></head><body style=\" font-family:'Verdana'; font-size:13px; font-weight:400; font-style:normal;\">\n<p style=\" margin-top:0px; margin-bottom:0px; margin-left:0px; margin-right:0px; -qt-block-indent:0; text-indent:0px;\"><span style=\" font-family:'Microsoft YaHei'; font-size:13px; font-style:italic;\">\u5728polygon\u4e0a\u9009\u4e24\u6761\u7ebf\uff0c\u70b9\u4e00\u4e0b\u529f\u80fd,enjoyit</span></p></body></html>", 
    "nickName": "\u4e0d\u7528\u6bdb\u56ca\u7684\u94c6\u9489\u5de5\u5177"
}