{
    "webAddress": "https://www.yuque.com/lindayuan-8o2th/sstoolshelf/gdvbfn", 
    "copyright": "Figo", 
    "iconName": ":/icon/py.png", 
    "filePath": "C:/gitLab/sstoolshelf/debug/FgToolshelf/depository/Rig/dm2skin.py", 
    "tag": "default", 
    "nowHelpData": "\u8fd9\u4e2a\u4eba\u5f88\u61d2\uff0c\u6ca1\u6709\u6dfb\u52a0\u6ce8\u91ca", 
    "nickName": "dm2skin.py"
}